(kicad_pcb (version 4) (host kicad "dummy file") 
  (gr_line (start 122.500 71.500) (end 174.500 71.500) (angle 90) (layer Edge.Cuts) (width 0.16))
  (gr_arc (start 122.500 72.500) (end 122.500 71.500) (angle -90.000) (layer Edge.Cuts) (width 0.16))
  (gr_arc (start 174.500 72.500) (end 175.500 72.500) (angle -90.000) (layer Edge.Cuts) (width 0.16))
  (gr_line (start 121.500 124.500) (end 121.500 72.500) (angle 90) (layer Edge.Cuts) (width 0.16))
  (gr_line (start 175.500 72.500) (end 175.500 124.500) (angle 90) (layer Edge.Cuts) (width 0.16))
  (gr_arc (start 122.500 124.500) (end 121.500 124.500) (angle -90.000) (layer Edge.Cuts) (width 0.16))
  (gr_arc (start 174.500 124.500) (end 174.500 125.500) (angle -90.000) (layer Edge.Cuts) (width 0.16))
  (gr_line (start 174.500 125.500) (end 122.500 125.500) (angle 90) (layer Edge.Cuts) (width 0.16))
  (gr_circle (center 173.000 74.000) (end 171.950 74.000) (layer Edge.Cuts) (width 0.16))
  (gr_circle (center 164.500 79.000) (end 163.500 79.000) (layer Edge.Cuts) (width 0.16))
  (gr_circle (center 132.500 79.000) (end 131.500 79.000) (layer Edge.Cuts) (width 0.16))
  (gr_circle (center 148.500 79.000) (end 147.500 79.000) (layer Edge.Cuts) (width 0.16))
  (gr_circle (center 132.500 118.000) (end 131.500 118.000) (layer Edge.Cuts) (width 0.16))
  (gr_circle (center 148.500 118.000) (end 147.500 118.000) (layer Edge.Cuts) (width 0.16))
  (gr_circle (center 164.500 118.000) (end 163.500 118.000) (layer Edge.Cuts) (width 0.16))
  (gr_circle (center 173.000 123.000) (end 171.950 123.000) (layer Edge.Cuts) (width 0.16))
  (gr_circle (center 124.000 123.000) (end 122.950 123.000) (layer Edge.Cuts) (width 0.16))
  (gr_circle (center 124.000 74.000) (end 122.950 74.000) (layer Edge.Cuts) (width 0.16))
  (gr_line (start 122.500 125.500) (end 174.500 125.500) (angle 90) (layer Edge.Cuts) (width 0.16))
  (gr_arc (start 122.500 124.500) (end 121.500 124.500) (angle -90.000) (layer Edge.Cuts) (width 0.16))
  (gr_arc (start 174.500 124.500) (end 174.500 125.500) (angle -90.000) (layer Edge.Cuts) (width 0.16))
  (gr_line (start 121.500 72.500) (end 121.500 124.500) (angle 90) (layer Edge.Cuts) (width 0.16))
  (gr_line (start 175.500 124.500) (end 175.500 72.500) (angle 90) (layer Edge.Cuts) (width 0.16))
  (gr_arc (start 122.500 72.500) (end 122.500 71.500) (angle -90.000) (layer Edge.Cuts) (width 0.16))
  (gr_arc (start 174.500 72.500) (end 175.500 72.500) (angle -90.000) (layer Edge.Cuts) (width 0.16))
  (gr_line (start 174.500 71.500) (end 122.500 71.500) (angle 90) (layer Edge.Cuts) (width 0.16))
  (gr_line (start 129.500 113.500) (end 130.500 113.500) (angle 90) (layer Edge.Cuts) (width 0.16))
  (gr_arc (start 129.500 111.500) (end 127.500 111.500) (angle -90.000) (layer Edge.Cuts) (width 0.16))
  (gr_arc (start 130.500 116.500) (end 133.500 116.500) (angle -90.000) (layer Edge.Cuts) (width 0.16))
  (gr_line (start 127.500 85.500) (end 127.500 111.500) (angle 90) (layer Edge.Cuts) (width 0.16))
  (gr_line (start 133.500 117.500) (end 133.500 116.500) (angle 90) (layer Edge.Cuts) (width 0.16))
  (gr_arc (start 129.500 85.500) (end 129.500 83.500) (angle -90.000) (layer Edge.Cuts) (width 0.16))
  (gr_arc (start 135.500 117.500) (end 133.500 117.500) (angle -90.000) (layer Edge.Cuts) (width 0.16))
  (gr_line (start 129.500 83.500) (end 130.500 83.500) (angle 90) (layer Edge.Cuts) (width 0.16))
  (gr_line (start 161.500 119.500) (end 135.500 119.500) (angle 90) (layer Edge.Cuts) (width 0.16))
  (gr_arc (start 130.500 80.500) (end 130.500 83.500) (angle -90.000) (layer Edge.Cuts) (width 0.16))
  (gr_arc (start 161.500 117.500) (end 161.500 119.500) (angle -90.000) (layer Edge.Cuts) (width 0.16))
  (gr_line (start 133.500 80.500) (end 133.500 79.500) (angle 90) (layer Edge.Cuts) (width 0.16))
  (gr_line (start 163.500 116.500) (end 163.500 117.500) (angle 90) (layer Edge.Cuts) (width 0.16))
  (gr_arc (start 135.500 79.500) (end 135.500 77.500) (angle -90.000) (layer Edge.Cuts) (width 0.16))
  (gr_arc (start 166.500 116.500) (end 166.500 113.500) (angle -90.000) (layer Edge.Cuts) (width 0.16))
  (gr_line (start 135.500 77.500) (end 161.500 77.500) (angle 90) (layer Edge.Cuts) (width 0.16))
  (gr_line (start 167.500 113.500) (end 166.500 113.500) (angle 90) (layer Edge.Cuts) (width 0.16))
  (gr_arc (start 161.500 79.500) (end 163.500 79.500) (angle -90.000) (layer Edge.Cuts) (width 0.16))
  (gr_arc (start 167.500 111.500) (end 167.500 113.500) (angle -90.000) (layer Edge.Cuts) (width 0.16))
  (gr_line (start 163.500 79.500) (end 163.500 80.500) (angle 90) (layer Edge.Cuts) (width 0.16))
  (gr_line (start 169.500 85.500) (end 169.500 111.500) (angle 90) (layer Edge.Cuts) (width 0.16))
  (gr_arc (start 166.500 80.500) (end 163.500 80.500) (angle -90.000) (layer Edge.Cuts) (width 0.16))
  (gr_arc (start 167.500 85.500) (end 169.500 85.500) (angle -90.000) (layer Edge.Cuts) (width 0.16))
  (gr_line (start 166.500 83.500) (end 167.500 83.500) (angle 90) (layer Edge.Cuts) (width 0.16))
)
 